Estructura/alu.vcd
$date
	Tue Oct 22 18:37:09 2024
$end
$version
	Icarus Verilog
$end
$timescale
	10ps
$end
$scope module alu_tb $end
$var wire 1 ! t_z $end
$var wire 1 " t_s $end
$var wire 1 # t_c $end
$var wire 4 $ t_R [3:0] $end
$var reg 1 % error $end
$var reg 1 & error_R $end
$var reg 1 ' error_c $end
$var reg 1 ( error_s $end
$var reg 1 ) error_z $end
$var reg 4 * t_A [3:0] $end
$var reg 4 + t_B [3:0] $end
$var reg 3 , t_Op [2:0] $end
$var reg 1 - t_cin $end
$var integer 32 . errores [31:0] $end
$scope module mat $end
$var wire 4 / A [3:0] $end
$var wire 4 0 B [3:0] $end
$var wire 3 1 Op [2:0] $end
$var wire 1 - c_in $end
$var wire 1 ! zero $end
$var wire 4 2 ul_out [3:0] $end
$var wire 1 " sign $end
$var wire 1 # carry $end
$var wire 4 3 adder_sum [3:0] $end
$var wire 4 4 R [3:0] $end
$var wire 4 5 B_mod [3:0] $end
$var wire 4 6 A_mod [3:0] $end
$scope module add $end
$var wire 1 - c_in $end
$var wire 1 7 out_fa3 $end
$var wire 1 8 out_fa2 $end
$var wire 1 9 out_fa1 $end
$var wire 1 # c_out $end
$var wire 4 : S [3:0] $end
$var wire 4 ; B [3:0] $end
$var wire 4 < A [3:0] $end
$scope module fa1 $end
$var wire 1 = a $end
$var wire 1 > b $end
$var wire 1 - c_in $end
$var wire 1 ? sum $end
$var wire 1 9 c_out $end
$upscope $end
$scope module fa2 $end
$var wire 1 @ a $end
$var wire 1 A b $end
$var wire 1 9 c_in $end
$var wire 1 B sum $end
$var wire 1 8 c_out $end
$upscope $end
$scope module fa3 $end
$var wire 1 C a $end
$var wire 1 D b $end
$var wire 1 8 c_in $end
$var wire 1 E sum $end
$var wire 1 7 c_out $end
$upscope $end
$scope module fa4 $end
$var wire 1 F a $end
$var wire 1 G b $end
$var wire 1 7 c_in $end
$var wire 1 H sum $end
$var wire 1 # c_out $end
$upscope $end
$upscope $end
$scope module mux $end
$var wire 4 I A [3:0] $end
$var wire 1 J not_s $end
$var wire 1 K s $end
$var wire 4 L Out [3:0] $end
$var wire 4 M B [3:0] $end
$upscope $end
$scope module prep $end
$var wire 4 N A [3:0] $end
$var wire 4 O B [3:0] $end
$var wire 3 P Op [2:0] $end
$var wire 1 Q cpl $end
$var wire 1 R op1_A $end
$var wire 1 S op2_B $end
$var wire 4 T op2_B_out [3:0] $end
$var wire 4 U add_out [3:0] $end
$var wire 1 V add1 $end
$var wire 4 W BMod [3:0] $end
$var wire 4 X AMod [3:0] $end
$scope module compl $end
$var wire 1 Q cpl $end
$var wire 4 Y Out [3:0] $end
$var wire 4 Z Inp [3:0] $end
$scope module mux_cpl $end
$var wire 4 [ B [3:0] $end
$var wire 1 \ not_s $end
$var wire 1 Q s $end
$var wire 4 ] Out [3:0] $end
$var wire 4 ^ A [3:0] $end
$upscope $end
$upscope $end
$scope module mux_add $end
$var wire 4 _ A [3:0] $end
$var wire 4 ` B [3:0] $end
$var wire 1 a not_s $end
$var wire 1 V s $end
$var wire 4 b Out [3:0] $end
$upscope $end
$scope module mux_op1_A $end
$var wire 4 c A [3:0] $end
$var wire 4 d B [3:0] $end
$var wire 1 e not_s $end
$var wire 1 R s $end
$var wire 4 f Out [3:0] $end
$upscope $end
$scope module mux_op2_B $end
$var wire 4 g A [3:0] $end
$var wire 4 h B [3:0] $end
$var wire 1 i not_s $end
$var wire 1 S s $end
$var wire 4 j Out [3:0] $end
$upscope $end
$upscope $end
$scope module ul $end
$var wire 4 k A [3:0] $end
$var wire 4 l B [3:0] $end
$var wire 2 m S [1:0] $end
$var wire 4 n Out [3:0] $end
$scope module cl0 $end
$var wire 2 o S [1:0] $end
$var wire 1 p a $end
$var wire 1 q and_res $end
$var wire 1 r b $end
$var wire 1 s not_res $end
$var wire 1 t or_res $end
$var wire 1 u xor_res $end
$var wire 1 v out $end
$scope module mux4_1_v1 $end
$var wire 2 w S [1:0] $end
$var wire 1 q a $end
$var wire 1 t b $end
$var wire 1 u c $end
$var wire 1 s d $end
$var reg 1 v out $end
$upscope $end
$upscope $end
$scope module cl1 $end
$var wire 2 x S [1:0] $end
$var wire 1 y a $end
$var wire 1 z and_res $end
$var wire 1 { b $end
$var wire 1 | not_res $end
$var wire 1 } or_res $end
$var wire 1 ~ xor_res $end
$var wire 1 !" out $end
$scope module mux4_1_v1 $end
$var wire 2 "" S [1:0] $end
$var wire 1 z a $end
$var wire 1 } b $end
$var wire 1 ~ c $end
$var wire 1 | d $end
$var reg 1 !" out $end
$upscope $end
$upscope $end
$scope module cl2 $end
$var wire 2 #" S [1:0] $end
$var wire 1 $" a $end
$var wire 1 %" and_res $end
$var wire 1 &" b $end
$var wire 1 '" not_res $end
$var wire 1 (" or_res $end
$var wire 1 )" xor_res $end
$var wire 1 *" out $end
$scope module mux4_1_v1 $end
$var wire 2 +" S [1:0] $end
$var wire 1 %" a $end
$var wire 1 (" b $end
$var wire 1 )" c $end
$var wire 1 '" d $end
$var reg 1 *" out $end
$upscope $end
$upscope $end
$scope module cl3 $end
$var wire 2 ," S [1:0] $end
$var wire 1 -" a $end
$var wire 1 ." and_res $end
$var wire 1 /" b $end
$var wire 1 0" not_res $end
$var wire 1 1" or_res $end
$var wire 1 2" xor_res $end
$var wire 1 3" out $end
$scope module mux4_1_v1 $end
$var wire 2 4" S [1:0] $end
$var wire 1 ." a $end
$var wire 1 1" b $end
$var wire 1 2" c $end
$var wire 1 0" d $end
$var reg 1 3" out $end
$upscope $end
$upscope $end
$upscope $end
$upscope $end
$scope task check $end
$var reg 5 5" expected_R [4:0] $end
$var reg 1 6" expected_c $end
$var reg 1 7" expected_s $end
$var reg 1 8" expected_z $end
$upscope $end
$upscope $end
$enddefinitions $end
$comment Show the parameter values. $end
$dumpall
$end
#0
$dumpvars
x8"
x7"
x6"
bx 5"
b0 4"
03"
02"
01"
10"
0/"
0."
0-"
b0 ,"
b0 +"
0*"
0)"
0("
1'"
0&"
0%"
0$"
b0 #"
b0 ""
0!"
0~
0}
1|
0{
0z
0y
b0 x
b0 w
0v
0u
0t
1s
0r
0q
0p
b0 o
b0 n
b0 m
b0 l
b0 k
b0 j
1i
b0 h
b0 g
b0 f
1e
b0 d
b0 c
b0 b
1a
b1 `
b0 _
b0 ^
b0 ]
1\
b1111 [
b0 Z
b0 Y
b0 X
b0 W
0V
b0 U
b0 T
0S
0R
0Q
b0 P
b0 O
b0 N
b0 M
b0 L
0K
1J
b0 I
0H
0G
0F
0E
0D
0C
0B
0A
0@
0?
0>
0=
b0 <
b0 ;
b0 :
09
08
07
b0 6
b0 5
b0 4
b0 3
b0 2
b0 1
b0 0
b0 /
b0 .
0-
b0 ,
b0 +
b0 *
x)
x(
x'
x&
x%
b0 $
0#
0"
1!
$end
#1
0%
0)
0&
18"
0'
0(
07"
06"
b0 5"
#1000
b1 +
b1 0
b1 O
b1 h
#2000
b10 +
b10 0
b10 O
b10 h
#3000
b11 +
b11 0
b11 O
b11 h
#4000
b100 +
b100 0
b100 O
b100 h
#5000
b101 +
b101 0
b101 O
b101 h
#6000
b110 +
b110 0
b110 O
b110 h
#7000
b111 +
b111 0
b111 O
b111 h
#8000
b1000 +
b1000 0
b1000 O
b1000 h
#9000
b1001 +
b1001 0
b1001 O
b1001 h
#10000
b1010 +
b1010 0
b1010 O
b1010 h
#11000
b1011 +
b1011 0
b1011 O
b1011 h
#12000
b1100 +
b1100 0
b1100 O
b1100 h
#13000
b1101 +
b1101 0
b1101 O
b1101 h
#14000
b1110 +
b1110 0
b1110 O
b1110 h
#15000
b1111 +
b1111 0
b1111 O
b1111 h
#16000
0!
b1 $
b1 4
b1 L
1t
1u
0s
b1 3
b1 :
b1 I
1?
1p
1>
b1 5
b1 ;
b1 W
b1 Y
b1 ]
b1 k
b1110 [
b1 T
b1 Z
b1 ^
b1 j
b1 *
b1 /
b1 N
b1 d
b1 g
b0 +
b0 0
b0 O
b0 h
#16001
08"
b1 5"
#17000
b1 +
b1 0
b1 O
b1 h
#18000
b10 +
b10 0
b10 O
b10 h
#19000
b11 +
b11 0
b11 O
b11 h
#20000
b100 +
b100 0
b100 O
b100 h
#21000
b101 +
b101 0
b101 O
b101 h
#22000
b110 +
b110 0
b110 O
b110 h
#23000
b111 +
b111 0
b111 O
b111 h
#24000
b1000 +
b1000 0
b1000 O
b1000 h
#25000
b1001 +
b1001 0
b1001 O
b1001 h
#26000
b1010 +
b1010 0
b1010 O
b1010 h
#27000
b1011 +
b1011 0
b1011 O
b1011 h
#28000
b1100 +
b1100 0
b1100 O
b1100 h
#29000
b1101 +
b1101 0
b1101 O
b1101 h
#30000
b1110 +
b1110 0
b1110 O
b1110 h
#31000
b1111 +
b1111 0
b1111 O
b1111 h
#32000
b10 $
b10 4
b10 L
0t
0u
1s
0?
1}
1~
0|
b10 3
b10 :
b10 I
1B
0p
0>
1y
1A
b10 5
b10 ;
b10 W
b10 Y
b10 ]
b10 k
b1101 [
b10 T
b10 Z
b10 ^
b10 j
b10 *
b10 /
b10 N
b10 d
b10 g
b0 +
b0 0
b0 O
b0 h
#32001
b10 5"
#33000
b1 +
b1 0
b1 O
b1 h
#34000
b10 +
b10 0
b10 O
b10 h
#35000
b11 +
b11 0
b11 O
b11 h
#36000
b100 +
b100 0
b100 O
b100 h
#37000
b101 +
b101 0
b101 O
b101 h
#38000
b110 +
b110 0
b110 O
b110 h
#39000
b111 +
b111 0
b111 O
b111 h
#40000
b1000 +
b1000 0
b1000 O
b1000 h
#41000
b1001 +
b1001 0
b1001 O
b1001 h
#42000
b1010 +
b1010 0
b1010 O
b1010 h
#43000
b1011 +
b1011 0
b1011 O
b1011 h
#44000
b1100 +
b1100 0
b1100 O
b1100 h
#45000
b1101 +
b1101 0
b1101 O
b1101 h
#46000
b1110 +
b1110 0
b1110 O
b1110 h
#47000
b1111 +
b1111 0
b1111 O
b1111 h
#48000
b11 $
b11 4
b11 L
1t
1u
0s
b11 3
b11 :
b11 I
1?
1p
1>
b11 5
b11 ;
b11 W
b11 Y
b11 ]
b11 k
b1100 [
b11 T
b11 Z
b11 ^
b11 j
b11 *
b11 /
b11 N
b11 d
b11 g
b0 +
b0 0
b0 O
b0 h
#48001
b11 5"
#49000
b1 +
b1 0
b1 O
b1 h
#50000
b10 +
b10 0
b10 O
b10 h
#51000
b11 +
b11 0
b11 O
b11 h
#52000
b100 +
b100 0
b100 O
b100 h
#53000
b101 +
b101 0
b101 O
b101 h
#54000
b110 +
b110 0
b110 O
b110 h
#55000
b111 +
b111 0
b111 O
b111 h
#56000
b1000 +
b1000 0
b1000 O
b1000 h
#57000
b1001 +
b1001 0
b1001 O
b1001 h
#58000
b1010 +
b1010 0
b1010 O
b1010 h
#59000
b1011 +
b1011 0
b1011 O
b1011 h
#60000
b1100 +
b1100 0
b1100 O
b1100 h
#61000
b1101 +
b1101 0
b1101 O
b1101 h
#62000
b1110 +
b1110 0
b1110 O
b1110 h
#63000
b1111 +
b1111 0
b1111 O
b1111 h
#64000
b100 $
b100 4
b100 L
0t
0u
1s
0?
0}
0~
1|
0B
1("
1)"
0'"
b100 3
b100 :
b100 I
1E
0p
0>
0y
0A
1$"
1D
b100 5
b100 ;
b100 W
b100 Y
b100 ]
b100 k
b1011 [
b100 T
b100 Z
b100 ^
b100 j
b100 *
b100 /
b100 N
b100 d
b100 g
b0 +
b0 0
b0 O
b0 h
#64001
b100 5"
#65000
b1 +
b1 0
b1 O
b1 h
#66000
b10 +
b10 0
b10 O
b10 h
#67000
b11 +
b11 0
b11 O
b11 h
#68000
b100 +
b100 0
b100 O
b100 h
#69000
b101 +
b101 0
b101 O
b101 h
#70000
b110 +
b110 0
b110 O
b110 h
#71000
b111 +
b111 0
b111 O
b111 h
#72000
b1000 +
b1000 0
b1000 O
b1000 h
#73000
b1001 +
b1001 0
b1001 O
b1001 h
#74000
b1010 +
b1010 0
b1010 O
b1010 h
#75000
b1011 +
b1011 0
b1011 O
b1011 h
#76000
b1100 +
b1100 0
b1100 O
b1100 h
#77000
b1101 +
b1101 0
b1101 O
b1101 h
#78000
b1110 +
b1110 0
b1110 O
b1110 h
#79000
b1111 +
b1111 0
b1111 O
b1111 h
#80000
b101 $
b101 4
b101 L
1t
1u
0s
b101 3
b101 :
b101 I
1?
1p
1>
b101 5
b101 ;
b101 W
b101 Y
b101 ]
b101 k
b1010 [
b101 T
b101 Z
b101 ^
b101 j
b101 *
b101 /
b101 N
b101 d
b101 g
b0 +
b0 0
b0 O
b0 h
#80001
b101 5"
#81000
b1 +
b1 0
b1 O
b1 h
#82000
b10 +
b10 0
b10 O
b10 h
#83000
b11 +
b11 0
b11 O
b11 h
#84000
b100 +
b100 0
b100 O
b100 h
#85000
b101 +
b101 0
b101 O
b101 h
#86000
b110 +
b110 0
b110 O
b110 h
#87000
b111 +
b111 0
b111 O
b111 h
#88000
b1000 +
b1000 0
b1000 O
b1000 h
#89000
b1001 +
b1001 0
b1001 O
b1001 h
#90000
b1010 +
b1010 0
b1010 O
b1010 h
#91000
b1011 +
b1011 0
b1011 O
b1011 h
#92000
b1100 +
b1100 0
b1100 O
b1100 h
#93000
b1101 +
b1101 0
b1101 O
b1101 h
#94000
b1110 +
b1110 0
b1110 O
b1110 h
#95000
b1111 +
b1111 0
b1111 O
b1111 h
#96000
b110 $
b110 4
b110 L
0t
0u
1s
0?
1}
1~
0|
b110 3
b110 :
b110 I
1B
0p
0>
1y
1A
b110 5
b110 ;
b110 W
b110 Y
b110 ]
b110 k
b1001 [
b110 T
b110 Z
b110 ^
b110 j
b110 *
b110 /
b110 N
b110 d
b110 g
b0 +
b0 0
b0 O
b0 h
#96001
b110 5"
#97000
b1 +
b1 0
b1 O
b1 h
#98000
b10 +
b10 0
b10 O
b10 h
#99000
b11 +
b11 0
b11 O
b11 h
#100000
b100 +
b100 0
b100 O
b100 h
#101000
b101 +
b101 0
b101 O
b101 h
#102000
b110 +
b110 0
b110 O
b110 h
#103000
b111 +
b111 0
b111 O
b111 h
#104000
b1000 +
b1000 0
b1000 O
b1000 h
#105000
b1001 +
b1001 0
b1001 O
b1001 h
#106000
b1010 +
b1010 0
b1010 O
b1010 h
#107000
b1011 +
b1011 0
b1011 O
b1011 h
#108000
b1100 +
b1100 0
b1100 O
b1100 h
#109000
b1101 +
b1101 0
b1101 O
b1101 h
#110000
b1110 +
b1110 0
b1110 O
b1110 h
#111000
b1111 +
b1111 0
b1111 O
b1111 h
#112000
b111 $
b111 4
b111 L
1t
1u
0s
b111 3
b111 :
b111 I
1?
1p
1>
b111 5
b111 ;
b111 W
b111 Y
b111 ]
b111 k
b1000 [
b111 T
b111 Z
b111 ^
b111 j
b111 *
b111 /
b111 N
b111 d
b111 g
b0 +
b0 0
b0 O
b0 h
#112001
b111 5"
#113000
b1 +
b1 0
b1 O
b1 h
#114000
b10 +
b10 0
b10 O
b10 h
#115000
b11 +
b11 0
b11 O
b11 h
#116000
b100 +
b100 0
b100 O
b100 h
#117000
b101 +
b101 0
b101 O
b101 h
#118000
b110 +
b110 0
b110 O
b110 h
#119000
b111 +
b111 0
b111 O
b111 h
#120000
b1000 +
b1000 0
b1000 O
b1000 h
#121000
b1001 +
b1001 0
b1001 O
b1001 h
#122000
b1010 +
b1010 0
b1010 O
b1010 h
#123000
b1011 +
b1011 0
b1011 O
b1011 h
#124000
b1100 +
b1100 0
b1100 O
b1100 h
#125000
b1101 +
b1101 0
b1101 O
b1101 h
#126000
b1110 +
b1110 0
b1110 O
b1110 h
#127000
b1111 +
b1111 0
b1111 O
b1111 h
#128000
1"
b1000 $
b1000 4
b1000 L
0t
0u
1s
0?
0}
0~
1|
0B
0("
0)"
1'"
0E
11"
12"
00"
b1000 3
b1000 :
b1000 I
1H
0p
0>
0y
0A
0$"
0D
1-"
1G
b1000 5
b1000 ;
b1000 W
b1000 Y
b1000 ]
b1000 k
b111 [
b1000 T
b1000 Z
b1000 ^
b1000 j
b1000 *
b1000 /
b1000 N
b1000 d
b1000 g
b0 +
b0 0
b0 O
b0 h
#128001
17"
b1000 5"
#129000
b1 +
b1 0
b1 O
b1 h
#130000
b10 +
b10 0
b10 O
b10 h
#131000
b11 +
b11 0
b11 O
b11 h
#132000
b100 +
b100 0
b100 O
b100 h
#133000
b101 +
b101 0
b101 O
b101 h
#134000
b110 +
b110 0
b110 O
b110 h
#135000
b111 +
b111 0
b111 O
b111 h
#136000
b1000 +
b1000 0
b1000 O
b1000 h
#137000
b1001 +
b1001 0
b1001 O
b1001 h
#138000
b1010 +
b1010 0
b1010 O
b1010 h
#139000
b1011 +
b1011 0
b1011 O
b1011 h
#140000
b1100 +
b1100 0
b1100 O
b1100 h
#141000
b1101 +
b1101 0
b1101 O
b1101 h
#142000
b1110 +
b1110 0
b1110 O
b1110 h
#143000
b1111 +
b1111 0
b1111 O
b1111 h
#144000
b1001 $
b1001 4
b1001 L
1t
1u
0s
b1001 3
b1001 :
b1001 I
1?
1p
1>
b1001 5
b1001 ;
b1001 W
b1001 Y
b1001 ]
b1001 k
b110 [
b1001 T
b1001 Z
b1001 ^
b1001 j
b1001 *
b1001 /
b1001 N
b1001 d
b1001 g
b0 +
b0 0
b0 O
b0 h
#144001
b1001 5"
#145000
b1 +
b1 0
b1 O
b1 h
#146000
b10 +
b10 0
b10 O
b10 h
#147000
b11 +
b11 0
b11 O
b11 h
#148000
b100 +
b100 0
b100 O
b100 h
#149000
b101 +
b101 0
b101 O
b101 h
#150000
b110 +
b110 0
b110 O
b110 h
#151000
b111 +
b111 0
b111 O
b111 h
#152000
b1000 +
b1000 0
b1000 O
b1000 h
#153000
b1001 +
b1001 0
b1001 O
b1001 h
#154000
b1010 +
b1010 0
b1010 O
b1010 h
#155000
b1011 +
b1011 0
b1011 O
b1011 h
#156000
b1100 +
b1100 0
b1100 O
b1100 h
#157000
b1101 +
b1101 0
b1101 O
b1101 h
#158000
b1110 +
b1110 0
b1110 O
b1110 h
#159000
b1111 +
b1111 0
b1111 O
b1111 h
#160000
b1010 $
b1010 4
b1010 L
0t
0u
1s
0?
1}
1~
0|
b1010 3
b1010 :
b1010 I
1B
0p
0>
1y
1A
b1010 5
b1010 ;
b1010 W
b1010 Y
b1010 ]
b1010 k
b101 [
b1010 T
b1010 Z
b1010 ^
b1010 j
b1010 *
b1010 /
b1010 N
b1010 d
b1010 g
b0 +
b0 0
b0 O
b0 h
#160001
b1010 5"
#161000
b1 +
b1 0
b1 O
b1 h
#162000
b10 +
b10 0
b10 O
b10 h
#163000
b11 +
b11 0
b11 O
b11 h
#164000
b100 +
b100 0
b100 O
b100 h
#165000
b101 +
b101 0
b101 O
b101 h
#166000
b110 +
b110 0
b110 O
b110 h
#167000
b111 +
b111 0
b111 O
b111 h
#168000
b1000 +
b1000 0
b1000 O
b1000 h
#169000
b1001 +
b1001 0
b1001 O
b1001 h
#170000
b1010 +
b1010 0
b1010 O
b1010 h
#171000
b1011 +
b1011 0
b1011 O
b1011 h
#172000
b1100 +
b1100 0
b1100 O
b1100 h
#173000
b1101 +
b1101 0
b1101 O
b1101 h
#174000
b1110 +
b1110 0
b1110 O
b1110 h
#175000
b1111 +
b1111 0
b1111 O
b1111 h
#176000
b1011 $
b1011 4
b1011 L
1t
1u
0s
b1011 3
b1011 :
b1011 I
1?
1p
1>
b1011 5
b1011 ;
b1011 W
b1011 Y
b1011 ]
b1011 k
b100 [
b1011 T
b1011 Z
b1011 ^
b1011 j
b1011 *
b1011 /
b1011 N
b1011 d
b1011 g
b0 +
b0 0
b0 O
b0 h
#176001
b1011 5"
#177000
b1 +
b1 0
b1 O
b1 h
#178000
b10 +
b10 0
b10 O
b10 h
#179000
b11 +
b11 0
b11 O
b11 h
#180000
b100 +
b100 0
b100 O
b100 h
#181000
b101 +
b101 0
b101 O
b101 h
#182000
b110 +
b110 0
b110 O
b110 h
#183000
b111 +
b111 0
b111 O
b111 h
#184000
b1000 +
b1000 0
b1000 O
b1000 h
#185000
b1001 +
b1001 0
b1001 O
b1001 h
#186000
b1010 +
b1010 0
b1010 O
b1010 h
#187000
b1011 +
b1011 0
b1011 O
b1011 h
#188000
b1100 +
b1100 0
b1100 O
b1100 h
#189000
b1101 +
b1101 0
b1101 O
b1101 h
#190000
b1110 +
b1110 0
b1110 O
b1110 h
#191000
b1111 +
b1111 0
b1111 O
b1111 h
#192000
b1100 $
b1100 4
b1100 L
0t
0u
1s
0?
0}
0~
1|
0B
1("
1)"
0'"
b1100 3
b1100 :
b1100 I
1E
0p
0>
0y
0A
1$"
1D
b1100 5
b1100 ;
b1100 W
b1100 Y
b1100 ]
b1100 k
b11 [
b1100 T
b1100 Z
b1100 ^
b1100 j
b1100 *
b1100 /
b1100 N
b1100 d
b1100 g
b0 +
b0 0
b0 O
b0 h
#192001
b1100 5"
#193000
b1 +
b1 0
b1 O
b1 h
#194000
b10 +
b10 0
b10 O
b10 h
#195000
b11 +
b11 0
b11 O
b11 h
#196000
b100 +
b100 0
b100 O
b100 h
#197000
b101 +
b101 0
b101 O
b101 h
#198000
b110 +
b110 0
b110 O
b110 h
#199000
b111 +
b111 0
b111 O
b111 h
#200000
b1000 +
b1000 0
b1000 O
b1000 h
#201000
b1001 +
b1001 0
b1001 O
b1001 h
#202000
b1010 +
b1010 0
b1010 O
b1010 h
#203000
b1011 +
b1011 0
b1011 O
b1011 h
#204000
b1100 +
b1100 0
b1100 O
b1100 h
#205000
b1101 +
b1101 0
b1101 O
b1101 h
#206000
b1110 +
b1110 0
b1110 O
b1110 h
#207000
b1111 +
b1111 0
b1111 O
b1111 h
#208000
b1101 $
b1101 4
b1101 L
1t
1u
0s
b1101 3
b1101 :
b1101 I
1?
1p
1>
b1101 5
b1101 ;
b1101 W
b1101 Y
b1101 ]
b1101 k
b10 [
b1101 T
b1101 Z
b1101 ^
b1101 j
b1101 *
b1101 /
b1101 N
b1101 d
b1101 g
b0 +
b0 0
b0 O
b0 h
#208001
b1101 5"
#209000
b1 +
b1 0
b1 O
b1 h
#210000
b10 +
b10 0
b10 O
b10 h
#211000
b11 +
b11 0
b11 O
b11 h
#212000
b100 +
b100 0
b100 O
b100 h
#213000
b101 +
b101 0
b101 O
b101 h
#214000
b110 +
b110 0
b110 O
b110 h
#215000
b111 +
b111 0
b111 O
b111 h
#216000
b1000 +
b1000 0
b1000 O
b1000 h
#217000
b1001 +
b1001 0
b1001 O
b1001 h
#218000
b1010 +
b1010 0
b1010 O
b1010 h
#219000
b1011 +
b1011 0
b1011 O
b1011 h
#220000
b1100 +
b1100 0
b1100 O
b1100 h
#221000
b1101 +
b1101 0
b1101 O
b1101 h
#222000
b1110 +
b1110 0
b1110 O
b1110 h
#223000
b1111 +
b1111 0
b1111 O
b1111 h
#224000
b1110 $
b1110 4
b1110 L
0t
0u
1s
0?
1}
1~
0|
b1110 3
b1110 :
b1110 I
1B
0p
0>
1y
1A
b1110 5
b1110 ;
b1110 W
b1110 Y
b1110 ]
b1110 k
b1 [
b1110 T
b1110 Z
b1110 ^
b1110 j
b1110 *
b1110 /
b1110 N
b1110 d
b1110 g
b0 +
b0 0
b0 O
b0 h
#224001
b1110 5"
#225000
b1 +
b1 0
b1 O
b1 h
#226000
b10 +
b10 0
b10 O
b10 h
#227000
b11 +
b11 0
b11 O
b11 h
#228000
b100 +
b100 0
b100 O
b100 h
#229000
b101 +
b101 0
b101 O
b101 h
#230000
b110 +
b110 0
b110 O
b110 h
#231000
b111 +
b111 0
b111 O
b111 h
#232000
b1000 +
b1000 0
b1000 O
b1000 h
#233000
b1001 +
b1001 0
b1001 O
b1001 h
#234000
b1010 +
b1010 0
b1010 O
b1010 h
#235000
b1011 +
b1011 0
b1011 O
b1011 h
#236000
b1100 +
b1100 0
b1100 O
b1100 h
#237000
b1101 +
b1101 0
b1101 O
b1101 h
#238000
b1110 +
b1110 0
b1110 O
b1110 h
#239000
b1111 +
b1111 0
b1111 O
b1111 h
#240000
b1111 $
b1111 4
b1111 L
1t
1u
0s
b1111 3
b1111 :
b1111 I
1?
1p
1>
b1111 5
b1111 ;
b1111 W
b1111 Y
b1111 ]
b1111 k
b0 [
b1111 T
b1111 Z
b1111 ^
b1111 j
b1111 *
b1111 /
b1111 N
b1111 d
b1111 g
b0 +
b0 0
b0 O
b0 h
#240001
b1111 5"
#241000
b1 +
b1 0
b1 O
b1 h
#242000
b10 +
b10 0
b10 O
b10 h
#243000
b11 +
b11 0
b11 O
b11 h
#244000
b100 +
b100 0
b100 O
b100 h
#245000
b101 +
b101 0
b101 O
b101 h
#246000
b110 +
b110 0
b110 O
b110 h
#247000
b111 +
b111 0
b111 O
b111 h
#248000
b1000 +
b1000 0
b1000 O
b1000 h
#249000
b1001 +
b1001 0
b1001 O
b1001 h
#250000
b1010 +
b1010 0
b1010 O
b1010 h
#251000
b1011 +
b1011 0
b1011 O
b1011 h
#252000
b1100 +
b1100 0
b1100 O
b1100 h
#253000
b1101 +
b1101 0
b1101 O
b1101 h
#254000
b1110 +
b1110 0
b1110 O
b1110 h
#255000
b1111 +
b1111 0
b1111 O
b1111 h
#256000
0!
0"
0t
0u
1s
0}
0~
1|
0("
0)"
1'"
01"
02"
10"
0p
0>
0y
0A
0$"
0D
0-"
0G
b0 5
b0 ;
b0 W
b0 Y
b0 ]
b0 k
b1 $
b1 4
b1 L
0H
0#
b1111 [
0E
07
b0 T
b0 Z
b0 ^
b0 j
0B
08
b1 3
b1 :
b1 I
1?
09
1-
b0 *
b0 /
b0 N
b0 d
b0 g
b0 +
b0 0
b0 O
b0 h
#256001
07"
b1 5"
#257000
b1 +
b1 0
b1 O
b1 h
#258000
b10 +
b10 0
b10 O
b10 h
#259000
b11 +
b11 0
b11 O
b11 h
#260000
b100 +
b100 0
b100 O
b100 h
#261000
b101 +
b101 0
b101 O
b101 h
#262000
b110 +
b110 0
b110 O
b110 h
#263000
b111 +
b111 0
b111 O
b111 h
#264000
b1000 +
b1000 0
b1000 O
b1000 h
#265000
b1001 +
b1001 0
b1001 O
b1001 h
#266000
b1010 +
b1010 0
b1010 O
b1010 h
#267000
b1011 +
b1011 0
b1011 O
b1011 h
#268000
b1100 +
b1100 0
b1100 O
b1100 h
#269000
b1101 +
b1101 0
b1101 O
b1101 h
#270000
b1110 +
b1110 0
b1110 O
b1110 h
#271000
b1111 +
b1111 0
b1111 O
b1111 h
#272000
b10 $
b10 4
b10 L
1B
1t
1u
0s
b10 3
b10 :
b10 I
0?
19
1p
1>
b1 5
b1 ;
b1 W
b1 Y
b1 ]
b1 k
b1110 [
b1 T
b1 Z
b1 ^
b1 j
b1 *
b1 /
b1 N
b1 d
b1 g
b0 +
b0 0
b0 O
b0 h
#272001
b10 5"
#273000
b1 +
b1 0
b1 O
b1 h
#274000
b10 +
b10 0
b10 O
b10 h
#275000
b11 +
b11 0
b11 O
b11 h
#276000
b100 +
b100 0
b100 O
b100 h
#277000
b101 +
b101 0
b101 O
b101 h
#278000
b110 +
b110 0
b110 O
b110 h
#279000
b111 +
b111 0
b111 O
b111 h
#280000
b1000 +
b1000 0
b1000 O
b1000 h
#281000
b1001 +
b1001 0
b1001 O
b1001 h
#282000
b1010 +
b1010 0
b1010 O
b1010 h
#283000
b1011 +
b1011 0
b1011 O
b1011 h
#284000
b1100 +
b1100 0
b1100 O
b1100 h
#285000
b1101 +
b1101 0
b1101 O
b1101 h
#286000
b1110 +
b1110 0
b1110 O
b1110 h
#287000
b1111 +
b1111 0
b1111 O
b1111 h
#288000
b11 $
b11 4
b11 L
0E
0t
0u
1s
1?
09
1}
1~
0|
b11 3
b11 :
b11 I
1B
08
0p
0>
1y
1A
b10 5
b10 ;
b10 W
b10 Y
b10 ]
b10 k
b1101 [
b10 T
b10 Z
b10 ^
b10 j
b10 *
b10 /
b10 N
b10 d
b10 g
b0 +
b0 0
b0 O
b0 h
#288001
b11 5"
#289000
b1 +
b1 0
b1 O
b1 h
#290000
b10 +
b10 0
b10 O
b10 h
#291000
b11 +
b11 0
b11 O
b11 h
#292000
b100 +
b100 0
b100 O
b100 h
#293000
b101 +
b101 0
b101 O
b101 h
#294000
b110 +
b110 0
b110 O
b110 h
#295000
b111 +
b111 0
b111 O
b111 h
#296000
b1000 +
b1000 0
b1000 O
b1000 h
#297000
b1001 +
b1001 0
b1001 O
b1001 h
#298000
b1010 +
b1010 0
b1010 O
b1010 h
#299000
b1011 +
b1011 0
b1011 O
b1011 h
#300000
b1100 +
b1100 0
b1100 O
b1100 h
#301000
b1101 +
b1101 0
b1101 O
b1101 h
#302000
b1110 +
b1110 0
b1110 O
b1110 h
#303000
b1111 +
b1111 0
b1111 O
b1111 h
#304000
b100 $
b100 4
b100 L
1E
0B
18
1t
1u
0s
b100 3
b100 :
b100 I
0?
19
1p
1>
b11 5
b11 ;
b11 W
b11 Y
b11 ]
b11 k
b1100 [
b11 T
b11 Z
b11 ^
b11 j
b11 *
b11 /
b11 N
b11 d
b11 g
b0 +
b0 0
b0 O
b0 h
#304001
b100 5"
#305000
b1 +
b1 0
b1 O
b1 h
#306000
b10 +
b10 0
b10 O
b10 h
#307000
b11 +
b11 0
b11 O
b11 h
#308000
b100 +
b100 0
b100 O
b100 h
#309000
b101 +
b101 0
b101 O
b101 h
#310000
b110 +
b110 0
b110 O
b110 h
#311000
b111 +
b111 0
b111 O
b111 h
#312000
b1000 +
b1000 0
b1000 O
b1000 h
#313000
b1001 +
b1001 0
b1001 O
b1001 h
#314000
b1010 +
b1010 0
b1010 O
b1010 h
#315000
b1011 +
b1011 0
b1011 O
b1011 h
#316000
b1100 +
b1100 0
b1100 O
b1100 h
#317000
b1101 +
b1101 0
b1101 O
b1101 h
#318000
b1110 +
b1110 0
b1110 O
b1110 h
