Estructura/alu.vcd
$date
	Wed Oct 16 08:42:51 2024
$end
$version
	Icarus Verilog
$end
$timescale
	10ps
$end
$scope module alu_tb $end
$var wire 1 ! t_z $end
$var wire 1 " t_s $end
$var wire 1 # t_c $end
$var wire 4 $ t_R [3:0] $end
$var reg 1 % error $end
$var reg 1 & error_R $end
$var reg 1 ' error_c $end
$var reg 1 ( error_s $end
$var reg 1 ) error_z $end
$var reg 4 * t_A [3:0] $end
$var reg 4 + t_B [3:0] $end
$var reg 3 , t_Op [2:0] $end
$var reg 1 - t_cin $end
$var integer 32 . errores [31:0] $end
$scope module mat $end
$var wire 4 / A [3:0] $end
$var wire 4 0 B [3:0] $end
$var wire 3 1 Op [2:0] $end
$var wire 1 - c_in $end
$var wire 1 ! zero $end
$var wire 4 2 ul_out [3:0] $end
$var wire 1 " sign $end
$var wire 1 # carry $end
$var wire 4 3 adder_sum [3:0] $end
$var wire 4 4 R [3:0] $end
$var wire 4 5 B_mod [3:0] $end
$var wire 4 6 A_mod [3:0] $end
$scope module add $end
$var wire 1 - c_in $end
$var wire 1 7 out_fa3 $end
$var wire 1 8 out_fa2 $end
$var wire 1 9 out_fa1 $end
$var wire 1 # c_out $end
$var wire 4 : S [3:0] $end
$var wire 4 ; B [3:0] $end
$var wire 4 < A [3:0] $end
$scope module fa1 $end
$var wire 1 = a $end
$var wire 1 > b $end
$var wire 1 - c_in $end
$var wire 1 ? sum $end
$var wire 1 9 c_out $end
$upscope $end
$scope module fa2 $end
$var wire 1 @ a $end
$var wire 1 A b $end
$var wire 1 9 c_in $end
$var wire 1 B sum $end
$var wire 1 8 c_out $end
$upscope $end
$scope module fa3 $end
$var wire 1 C a $end
$var wire 1 D b $end
$var wire 1 8 c_in $end
$var wire 1 E sum $end
$var wire 1 7 c_out $end
$upscope $end
$scope module fa4 $end
$var wire 1 F a $end
$var wire 1 G b $end
$var wire 1 7 c_in $end
$var wire 1 H sum $end
$var wire 1 # c_out $end
$upscope $end
$upscope $end
$scope module mux $end
$var wire 4 I A [3:0] $end
$var wire 1 J not_s $end
$var wire 1 K s $end
$var wire 4 L Out [3:0] $end
$var wire 4 M B [3:0] $end
$upscope $end
$scope module prep $end
$var wire 4 N A [3:0] $end
$var wire 4 O B [3:0] $end
$var wire 3 P Op [2:0] $end
$var wire 1 Q add1 $end
$var wire 1 R cpl $end
$var wire 1 S op1_A $end
$var wire 1 T op2_B $end
$var wire 4 U op2_B_out [3:0] $end
$var wire 4 V add_out [3:0] $end
$var wire 4 W BMod [3:0] $end
$var wire 4 X AMod [3:0] $end
$scope module compl $end
$var wire 1 R cpl $end
$var wire 4 Y Out [3:0] $end
$var wire 4 Z Inp [3:0] $end
$scope module mux_cpl $end
$var wire 4 [ A [3:0] $end
$var wire 1 \ not_s $end
$var wire 1 R s $end
$var wire 4 ] Out [3:0] $end
$var wire 4 ^ B [3:0] $end
$upscope $end
$upscope $end
$scope module mux_add $end
$var wire 4 _ A [3:0] $end
$var wire 4 ` B [3:0] $end
$var wire 1 a not_s $end
$var wire 1 Q s $end
$var wire 4 b Out [3:0] $end
$upscope $end
$scope module mux_op1_A $end
$var wire 4 c A [3:0] $end
$var wire 4 d B [3:0] $end
$var wire 1 e not_s $end
$var wire 1 S s $end
$var wire 4 f Out [3:0] $end
$upscope $end
$scope module mux_op2_B $end
$var wire 4 g A [3:0] $end
$var wire 4 h B [3:0] $end
$var wire 1 i not_s $end
$var wire 1 T s $end
$var wire 4 j Out [3:0] $end
$upscope $end
$upscope $end
$scope module ul $end
$var wire 4 k A [3:0] $end
$var wire 4 l B [3:0] $end
$var wire 2 m S [1:0] $end
$var wire 4 n Out [3:0] $end
$scope module cl0 $end
$var wire 2 o S [1:0] $end
$var wire 1 p a $end
$var wire 1 q and_res $end
$var wire 1 r b $end
$var wire 1 s not_res $end
$var wire 1 t or_res $end
$var wire 1 u xor_res $end
$var wire 1 v out $end
$scope module mux4_1_v1 $end
$var wire 2 w S [1:0] $end
$var wire 1 q a $end
$var wire 1 t b $end
$var wire 1 u c $end
$var wire 1 s d $end
$var reg 1 v out $end
$upscope $end
$upscope $end
$scope module cl1 $end
$var wire 2 x S [1:0] $end
$var wire 1 y a $end
$var wire 1 z and_res $end
$var wire 1 { b $end
$var wire 1 | not_res $end
$var wire 1 } or_res $end
$var wire 1 ~ xor_res $end
$var wire 1 !" out $end
$scope module mux4_1_v1 $end
$var wire 2 "" S [1:0] $end
$var wire 1 z a $end
$var wire 1 } b $end
$var wire 1 ~ c $end
$var wire 1 | d $end
$var reg 1 !" out $end
$upscope $end
$upscope $end
$scope module cl2 $end
$var wire 2 #" S [1:0] $end
$var wire 1 $" a $end
$var wire 1 %" and_res $end
$var wire 1 &" b $end
$var wire 1 '" not_res $end
$var wire 1 (" or_res $end
$var wire 1 )" xor_res $end
$var wire 1 *" out $end
$scope module mux4_1_v1 $end
$var wire 2 +" S [1:0] $end
$var wire 1 %" a $end
$var wire 1 (" b $end
$var wire 1 )" c $end
$var wire 1 '" d $end
$var reg 1 *" out $end
$upscope $end
$upscope $end
$scope module cl3 $end
$var wire 2 ," S [1:0] $end
$var wire 1 -" a $end
$var wire 1 ." and_res $end
$var wire 1 /" b $end
$var wire 1 0" not_res $end
$var wire 1 1" or_res $end
$var wire 1 2" xor_res $end
$var wire 1 3" out $end
$scope module mux4_1_v1 $end
$var wire 2 4" S [1:0] $end
$var wire 1 ." a $end
$var wire 1 1" b $end
$var wire 1 2" c $end
$var wire 1 0" d $end
$var reg 1 3" out $end
$upscope $end
$upscope $end
$upscope $end
$upscope $end
$scope task check $end
$var reg 5 5" expected_R [4:0] $end
$var reg 1 6" expected_c $end
$var reg 1 7" expected_s $end
$var reg 1 8" expected_z $end
$upscope $end
$upscope $end
$enddefinitions $end
$comment Show the parameter values. $end
$dumpall
$end
#0
$dumpvars
x8"
x7"
x6"
bx 5"
b0 4"
03"
12"
11"
10"
1/"
0."
0-"
b0 ,"
b0 +"
0*"
1)"
1("
1'"
1&"
0%"
0$"
b0 #"
b0 ""
0!"
1~
1}
1|
1{
0z
0y
b0 x
b0 w
0v
1u
1t
1s
1r
0q
0p
b0 o
b0 n
b0 m
b1111 l
b0 k
b0 j
1i
b0 h
b0 g
b0 f
1e
b0 d
b0 c
b0 b
1a
b1 `
b0 _
b0 ^
b1111 ]
1\
b1111 [
b0 Z
b1111 Y
b0 X
b1111 W
b0 V
b0 U
0T
0S
0R
0Q
b0 P
b0 O
b0 N
b0 M
b1111 L
0K
1J
b1111 I
1H
1G
0F
1E
1D
0C
1B
1A
0@
1?
1>
0=
b0 <
b1111 ;
b1111 :
09
08
07
b0 6
b1111 5
b1111 4
b1111 3
b0 2
b0 1
b0 0
b0 /
b0 .
0-
b0 ,
b0 +
b0 *
x)
x(
x'
x&
x%
b1111 $
0#
1"
0!
$end
#1
b1 .
1%
1)
1&
18"
0'
1(
07"
06"
b0 5"
#1000
b1 +
b1 0
b1 O
b1 h
#1001
b10 .
#2000
b10 +
b10 0
b10 O
b10 h
#2001
b11 .
#3000
b11 +
b11 0
b11 O
b11 h
#3001
b100 .
#4000
b100 +
b100 0
b100 O
b100 h
#4001
b101 .
#5000
b101 +
b101 0
b101 O
b101 h
#5001
b110 .
#6000
b110 +
b110 0
b110 O
b110 h
#6001
b111 .
#7000
b111 +
b111 0
b111 O
b111 h
#7001
b1000 .
#8000
b1000 +
b1000 0
b1000 O
b1000 h
#8001
b1001 .
#9000
b1001 +
b1001 0
b1001 O
b1001 h
#9001
b1010 .
#10000
b1010 +
b1010 0
b1010 O
b1010 h
#10001
b1011 .
#11000
b1011 +
b1011 0
b1011 O
b1011 h
#11001
b1100 .
#12000
b1100 +
b1100 0
b1100 O
b1100 h
#12001
b1101 .
#13000
b1101 +
b1101 0
b1101 O
b1101 h
#13001
b1110 .
#14000
b1110 +
b1110 0
b1110 O
b1110 h
#14001
b1111 .
#15000
b1111 +
b1111 0
b1111 O
b1111 h
#15001
b10000 .
#16000
b1110 $
b1110 4
b1110 L
0t
0u
b1110 3
b1110 :
b1110 I
0?
0r
0>
b1110 5
b1110 ;
b1110 W
b1110 Y
b1110 ]
b1110 l
b1110 [
b1 U
b1 Z
b1 ^
b1 j
b1 *
b1 /
b1 N
b1 d
b1 g
b0 +
b0 0
b0 O
b0 h
#16001
b10001 .
0)
08"
b1 5"
#17000
b1 +
b1 0
b1 O
b1 h
#17001
b10010 .
#18000
b10 +
b10 0
b10 O
b10 h
#18001
b10011 .
#19000
b11 +
b11 0
b11 O
b11 h
#19001
b10100 .
#20000
b100 +
b100 0
b100 O
b100 h
#20001
b10101 .
#21000
b101 +
b101 0
b101 O
b101 h
#21001
b10110 .
#22000
b110 +
b110 0
b110 O
b110 h
#22001
b10111 .
#23000
b111 +
b111 0
b111 O
b111 h
#23001
b11000 .
#24000
b1000 +
b1000 0
b1000 O
b1000 h
#24001
b11001 .
#25000
b1001 +
b1001 0
b1001 O
b1001 h
#25001
b11010 .
#26000
b1010 +
b1010 0
b1010 O
b1010 h
#26001
b11011 .
#27000
b1011 +
b1011 0
b1011 O
b1011 h
#27001
b11100 .
#28000
b1100 +
b1100 0
b1100 O
b1100 h
#28001
b11101 .
#29000
b1101 +
b1101 0
b1101 O
b1101 h
#29001
b11110 .
#30000
b1110 +
b1110 0
b1110 O
b1110 h
#30001
b11111 .
#31000
b1111 +
b1111 0
b1111 O
b1111 h
#31001
b100000 .
#32000
b1101 $
b1101 4
b1101 L
1t
1u
1?
0}
0~
b1101 3
b1101 :
b1101 I
0B
1r
1>
0{
0A
b1101 5
b1101 ;
b1101 W
b1101 Y
b1101 ]
b1101 l
b1101 [
b10 U
b10 Z
b10 ^
b10 j
b10 *
b10 /
b10 N
b10 d
b10 g
b0 +
b0 0
b0 O
b0 h
#32001
b100001 .
b10 5"
#33000
b1 +
b1 0
b1 O
b1 h
#33001
b100010 .
#34000
b10 +
b10 0
b10 O
b10 h
#34001
b100011 .
#35000
b11 +
b11 0
b11 O
b11 h
#35001
b100100 .
#36000
b100 +
b100 0
b100 O
b100 h
#36001
b100101 .
#37000
b101 +
b101 0
b101 O
b101 h
#37001
b100110 .
#38000
b110 +
b110 0
b110 O
b110 h
#38001
b100111 .
#39000
b111 +
b111 0
b111 O
b111 h
#39001
b101000 .
#40000
b1000 +
b1000 0
b1000 O
b1000 h
#40001
b101001 .
#41000
b1001 +
b1001 0
b1001 O
b1001 h
#41001
b101010 .
#42000
b1010 +
b1010 0
b1010 O
b1010 h
#42001
b101011 .
#43000
b1011 +
b1011 0
b1011 O
b1011 h
#43001
b101100 .
#44000
b1100 +
b1100 0
b1100 O
b1100 h
#44001
b101101 .
#45000
b1101 +
b1101 0
b1101 O
b1101 h
#45001
b101110 .
#46000
b1110 +
b1110 0
b1110 O
b1110 h
#46001
b101111 .
#47000
b1111 +
b1111 0
b1111 O
b1111 h
#47001
b110000 .
#48000
b1100 $
b1100 4
b1100 L
0t
0u
b1100 3
b1100 :
b1100 I
0?
0r
0>
b1100 5
b1100 ;
b1100 W
b1100 Y
b1100 ]
b1100 l
b1100 [
b11 U
b11 Z
b11 ^
b11 j
b11 *
b11 /
b11 N
b11 d
b11 g
b0 +
b0 0
b0 O
b0 h
#48001
b110001 .
b11 5"
#49000
b1 +
b1 0
b1 O
b1 h
#49001
b110010 .
#50000
b10 +
b10 0
b10 O
b10 h
#50001
b110011 .
#51000
b11 +
b11 0
b11 O
b11 h
#51001
b110100 .
#52000
b100 +
b100 0
b100 O
b100 h
#52001
b110101 .
#53000
b101 +
b101 0
b101 O
b101 h
#53001
b110110 .
#54000
b110 +
b110 0
b110 O
b110 h
#54001
b110111 .
#55000
b111 +
b111 0
b111 O
b111 h
#55001
b111000 .
#56000
b1000 +
b1000 0
b1000 O
b1000 h
#56001
b111001 .
#57000
b1001 +
b1001 0
b1001 O
b1001 h
#57001
b111010 .
#58000
b1010 +
b1010 0
b1010 O
b1010 h
#58001
b111011 .
#59000
b1011 +
b1011 0
b1011 O
b1011 h
#59001
b111100 .
#60000
b1100 +
b1100 0
b1100 O
b1100 h
#60001
b111101 .
#61000
b1101 +
b1101 0
b1101 O
b1101 h
#61001
b111110 .
#62000
b1110 +
b1110 0
b1110 O
b1110 h
#62001
b111111 .
#63000
b1111 +
b1111 0
b1111 O
b1111 h
#63001
b1000000 .
#64000
b1011 $
b1011 4
b1011 L
1t
1u
1?
1}
1~
1B
0("
0)"
b1011 3
b1011 :
b1011 I
0E
1r
1>
1{
1A
0&"
0D
b1011 5
b1011 ;
b1011 W
b1011 Y
b1011 ]
b1011 l
b1011 [
b100 U
b100 Z
b100 ^
b100 j
b100 *
b100 /
b100 N
b100 d
b100 g
b0 +
b0 0
b0 O
b0 h
#64001
b1000001 .
b100 5"
#65000
b1 +
b1 0
b1 O
b1 h
#65001
b1000010 .
#66000
b10 +
b10 0
b10 O
b10 h
#66001
b1000011 .
#67000
b11 +
b11 0
b11 O
b11 h
#67001
b1000100 .
#68000
b100 +
b100 0
b100 O
b100 h
#68001
b1000101 .
#69000
b101 +
b101 0
b101 O
b101 h
#69001
b1000110 .
#70000
b110 +
b110 0
b110 O
b110 h
#70001
b1000111 .
#71000
b111 +
b111 0
b111 O
b111 h
#71001
b1001000 .
#72000
b1000 +
b1000 0
b1000 O
b1000 h
#72001
b1001001 .
#73000
b1001 +
b1001 0
b1001 O
b1001 h
#73001
b1001010 .
#74000
b1010 +
b1010 0
b1010 O
b1010 h
#74001
b1001011 .
#75000
b1011 +
b1011 0
b1011 O
b1011 h
#75001
b1001100 .
#76000
b1100 +
b1100 0
b1100 O
b1100 h
#76001
b1001101 .
#77000
b1101 +
b1101 0
b1101 O
b1101 h
#77001
b1001110 .
#78000
b1110 +
b1110 0
b1110 O
b1110 h
#78001
b1001111 .
#79000
b1111 +
b1111 0
b1111 O
b1111 h
#79001
b1010000 .
#80000
b1010 $
b1010 4
b1010 L
0t
0u
b1010 3
b1010 :
b1010 I
0?
0r
0>
b1010 5
b1010 ;
b1010 W
b1010 Y
b1010 ]
b1010 l
b1010 [
b101 U
b101 Z
b101 ^
b101 j
b101 *
b101 /
b101 N
b101 d
b101 g
b0 +
b0 0
b0 O
b0 h
#80001
b1010001 .
b101 5"
#81000
b1 +
b1 0
b1 O
b1 h
#81001
b1010010 .
#82000
b10 +
b10 0
b10 O
b10 h
#82001
b1010011 .
#83000
b11 +
b11 0
b11 O
b11 h
#83001
b1010100 .
#84000
b100 +
b100 0
b100 O
b100 h
#84001
b1010101 .
#85000
b101 +
b101 0
b101 O
b101 h
#85001
b1010110 .
#86000
b110 +
b110 0
b110 O
b110 h
#86001
b1010111 .
#87000
b111 +
b111 0
b111 O
b111 h
#87001
b1011000 .
#88000
b1000 +
b1000 0
b1000 O
b1000 h
#88001
b1011001 .
#89000
b1001 +
b1001 0
b1001 O
b1001 h
#89001
b1011010 .
#90000
b1010 +
b1010 0
b1010 O
b1010 h
#90001
b1011011 .
#91000
b1011 +
b1011 0
b1011 O
b1011 h
#91001
b1011100 .
#92000
b1100 +
b1100 0
b1100 O
b1100 h
#92001
b1011101 .
#93000
b1101 +
b1101 0
b1101 O
b1101 h
#93001
b1011110 .
#94000
b1110 +
b1110 0
b1110 O
b1110 h
#94001
b1011111 .
#95000
b1111 +
b1111 0
b1111 O
b1111 h
#95001
b1100000 .
#96000
b1001 $
b1001 4
b1001 L
1t
1u
1?
0}
0~
b1001 3
b1001 :
b1001 I
0B
1r
1>
0{
0A
b1001 5
b1001 ;
b1001 W
b1001 Y
b1001 ]
b1001 l
b1001 [
b110 U
b110 Z
b110 ^
b110 j
b110 *
b110 /
b110 N
b110 d
b110 g
b0 +
b0 0
b0 O
b0 h
#96001
b1100001 .
b110 5"
#97000
b1 +
b1 0
b1 O
b1 h
#97001
b1100010 .
#98000
b10 +
b10 0
b10 O
b10 h
#98001
b1100011 .
#99000
b11 +
b11 0
b11 O
b11 h
#99001
b1100100 .
#100000
b100 +
b100 0
b100 O
b100 h
#100001
b1100101 .
#101000
b101 +
b101 0
b101 O
b101 h
#101001
b1100110 .
#102000
b110 +
b110 0
b110 O
b110 h
#102001
b1100111 .
#103000
b111 +
b111 0
b111 O
b111 h
#103001
b1101000 .
#104000
b1000 +
b1000 0
b1000 O
b1000 h
#104001
b1101001 .
#105000
b1001 +
b1001 0
b1001 O
b1001 h
#105001
b1101010 .
#106000
b1010 +
b1010 0
b1010 O
b1010 h
#106001
b1101011 .
#107000
b1011 +
b1011 0
b1011 O
b1011 h
#107001
b1101100 .
#108000
b1100 +
b1100 0
b1100 O
b1100 h
#108001
b1101101 .
#109000
b1101 +
b1101 0
b1101 O
b1101 h
#109001
b1101110 .
#110000
b1110 +
b1110 0
b1110 O
b1110 h
#110001
b1101111 .
#111000
b1111 +
b1111 0
b1111 O
b1111 h
#111001
b1110000 .
#112000
b1000 $
b1000 4
b1000 L
0t
0u
b1000 3
b1000 :
b1000 I
0?
0r
0>
b1000 5
b1000 ;
b1000 W
b1000 Y
b1000 ]
b1000 l
b1000 [
b111 U
b111 Z
b111 ^
b111 j
b111 *
b111 /
b111 N
b111 d
b111 g
b0 +
b0 0
b0 O
b0 h
#112001
b1110001 .
b111 5"
#113000
b1 +
b1 0
b1 O
b1 h
#113001
b1110010 .
#114000
b10 +
b10 0
b10 O
b10 h
#114001
b1110011 .
#115000
b11 +
b11 0
b11 O
b11 h
#115001
b1110100 .
#116000
b100 +
b100 0
b100 O
b100 h
#116001
b1110101 .
#117000
b101 +
b101 0
b101 O
b101 h
#117001
b1110110 .
#118000
b110 +
b110 0
b110 O
b110 h
#118001
b1110111 .
#119000
b111 +
b111 0
b111 O
b111 h
#119001
b1111000 .
#120000
b1000 +
b1000 0
b1000 O
b1000 h
#120001
b1111001 .
#121000
b1001 +
b1001 0
b1001 O
b1001 h
#121001
b1111010 .
#122000
b1010 +
b1010 0
b1010 O
b1010 h
#122001
b1111011 .
#123000
b1011 +
b1011 0
b1011 O
b1011 h
#123001
b1111100 .
#124000
b1100 +
b1100 0
b1100 O
b1100 h
#124001
b1111101 .
#125000
b1101 +
b1101 0
b1101 O
b1101 h
#125001
b1111110 .
#126000
b1110 +
b1110 0
b1110 O
b1110 h
#126001
b1111111 .
#127000
b1111 +
b1111 0
b1111 O
b1111 h
#127001
b10000000 .
#128000
0"
b111 $
b111 4
b111 L
1t
1u
1?
1}
1~
1B
1("
1)"
1E
01"
02"
b111 3
b111 :
b111 I
0H
1r
1>
1{
1A
1&"
1D
0/"
0G
b111 5
b111 ;
b111 W
b111 Y
b111 ]
b111 l
b111 [
b1000 U
b1000 Z
b1000 ^
b1000 j
b1000 *
b1000 /
b1000 N
b1000 d
b1000 g
b0 +
b0 0
b0 O
b0 h
#128001
b10000001 .
17"
b1000 5"
#129000
b1 +
b1 0
b1 O
b1 h
#129001
b10000010 .
#130000
b10 +
b10 0
b10 O
b10 h
#130001
b10000011 .
#131000
b11 +
b11 0
b11 O
b11 h
#131001
b10000100 .
#132000
b100 +
b100 0
b100 O
b100 h
#132001
b10000101 .
#133000
b101 +
b101 0
b101 O
b101 h
#133001
b10000110 .
#134000
b110 +
b110 0
b110 O
b110 h
#134001
b10000111 .
#135000
b111 +
b111 0
b111 O
b111 h
#135001
b10001000 .
#136000
b1000 +
b1000 0
b1000 O
b1000 h
#136001
b10001001 .
#137000
b1001 +
b1001 0
b1001 O
b1001 h
#137001
b10001010 .
#138000
b1010 +
b1010 0
b1010 O
b1010 h
#138001
b10001011 .
#139000
b1011 +
b1011 0
b1011 O
b1011 h
#139001
b10001100 .
#140000
b1100 +
b1100 0
b1100 O
b1100 h
#140001
b10001101 .
#141000
b1101 +
b1101 0
b1101 O
b1101 h
#141001
b10001110 .
#142000
b1110 +
b1110 0
b1110 O
b1110 h
#142001
b10001111 .
#143000
b1111 +
b1111 0
b1111 O
b1111 h
#143001
b10010000 .
#144000
b110 $
b110 4
b110 L
0t
0u
b110 3
b110 :
b110 I
0?
0r
0>
b110 5
b110 ;
b110 W
b110 Y
b110 ]
b110 l
b110 [
b1001 U
b1001 Z
b1001 ^
b1001 j
b1001 *
b1001 /
b1001 N
b1001 d
b1001 g
b0 +
b0 0
b0 O
b0 h
#144001
b10010001 .
b1001 5"
#145000
b1 +
b1 0
b1 O
b1 h
#145001
b10010010 .
#146000
b10 +
b10 0
b10 O
b10 h
#146001
b10010011 .
#147000
b11 +
b11 0
b11 O
b11 h
#147001
b10010100 .
#148000
b100 +
b100 0
b100 O
b100 h
#148001
b10010101 .
#149000
b101 +
b101 0
b101 O
b101 h
#149001
b10010110 .
#150000
b110 +
b110 0
b110 O
b110 h
#150001
b10010111 .
#151000
b111 +
b111 0
b111 O
b111 h
#151001
b10011000 .
#152000
b1000 +
b1000 0
b1000 O
b1000 h
#152001
b10011001 .
#153000
b1001 +
b1001 0
b1001 O
b1001 h
#153001
b10011010 .
#154000
b1010 +
b1010 0
b1010 O
b1010 h
#154001
b10011011 .
#155000
b1011 +
b1011 0
b1011 O
b1011 h
#155001
b10011100 .
#156000
b1100 +
b1100 0
b1100 O
b1100 h
#156001
b10011101 .
#157000
b1101 +
b1101 0
b1101 O
b1101 h
#157001
b10011110 .
#158000
b1110 +
b1110 0
b1110 O
b1110 h
#158001
b10011111 .
#159000
b1111 +
b1111 0
b1111 O
b1111 h
#159001
b10100000 .
#160000
b101 $
b101 4
b101 L
1t
1u
1?
0}
0~
b101 3
b101 :
b101 I
0B
1r
1>
0{
0A
b101 5
b101 ;
b101 W
b101 Y
b101 ]
b101 l
b101 [
b1010 U
b1010 Z
b1010 ^
b1010 j
b1010 *
b1010 /
b1010 N
b1010 d
b1010 g
b0 +
b0 0
b0 O
b0 h
#160001
b10100001 .
b1010 5"
#161000
b1 +
b1 0
b1 O
b1 h
#161001
b10100010 .
#162000
b10 +
b10 0
b10 O
b10 h
#162001
b10100011 .
#163000
b11 +
b11 0
b11 O
b11 h
#163001
b10100100 .
#164000
b100 +
b100 0
b100 O
b100 h
#164001
b10100101 .
#165000
b101 +
b101 0
b101 O
b101 h
#165001
b10100110 .
#166000
b110 +
b110 0
b110 O
b110 h
#166001
b10100111 .
#167000
b111 +
b111 0
b111 O
b111 h
#167001
b10101000 .
#168000
b1000 +
b1000 0
b1000 O
b1000 h
#168001
b10101001 .
#169000
b1001 +
b1001 0
b1001 O
b1001 h
#169001
b10101010 .
#170000
b1010 +
b1010 0
b1010 O
b1010 h
#170001
b10101011 .
#171000
b1011 +
b1011 0
b1011 O
b1011 h
#171001
b10101100 .
#172000
b1100 +
b1100 0
b1100 O
b1100 h
#172001
b10101101 .
#173000
b1101 +
b1101 0
b1101 O
b1101 h
#173001
b10101110 .
#174000
b1110 +
b1110 0
b1110 O
b1110 h
#174001
b10101111 .
#175000
b1111 +
b1111 0
b1111 O
b1111 h
#175001
b10110000 .
#176000
b100 $
b100 4
b100 L
0t
0u
b100 3
b100 :
b100 I
0?
0r
0>
b100 5
b100 ;
b100 W
b100 Y
b100 ]
b100 l
b100 [
b1011 U
b1011 Z
b1011 ^
b1011 j
b1011 *
b1011 /
b1011 N
b1011 d
b1011 g
b0 +
b0 0
b0 O
b0 h
#176001
b10110001 .
b1011 5"
#177000
b1 +
b1 0
b1 O
b1 h
#177001
b10110010 .
#178000
b10 +
b10 0
b10 O
b10 h
#178001
b10110011 .
#179000
b11 +
b11 0
b11 O
b11 h
#179001
b10110100 .
#180000
b100 +
b100 0
b100 O
b100 h
#180001
b10110101 .
#181000
b101 +
b101 0
b101 O
b101 h
#181001
b10110110 .
#182000
b110 +
b110 0
b110 O
b110 h
#182001
b10110111 .
#183000
b111 +
b111 0
b111 O
b111 h
#183001
b10111000 .
#184000
b1000 +
b1000 0
b1000 O
b1000 h
#184001
b10111001 .
#185000
b1001 +
b1001 0
b1001 O
b1001 h
#185001
b10111010 .
#186000
b1010 +
b1010 0
b1010 O
b1010 h
#186001
b10111011 .
#187000
b1011 +
b1011 0
b1011 O
b1011 h
#187001
b10111100 .
#188000
b1100 +
b1100 0
b1100 O
b1100 h
#188001
b10111101 .
#189000
b1101 +
b1101 0
b1101 O
b1101 h
#189001
b10111110 .
#190000
b1110 +
b1110 0
b1110 O
b1110 h
#190001
b10111111 .
#191000
b1111 +
b1111 0
b1111 O
b1111 h
#191001
b11000000 .
#192000
b11 $
b11 4
b11 L
1t
1u
1?
1}
1~
1B
0("
0)"
b11 3
b11 :
b11 I
0E
1r
1>
1{
1A
0&"
0D
b11 5
b11 ;
b11 W
b11 Y
b11 ]
b11 l
b11 [
b1100 U
b1100 Z
b1100 ^
b1100 j
b1100 *
b1100 /
b1100 N
b1100 d
b1100 g
b0 +
b0 0
b0 O
b0 h
#192001
b11000001 .
b1100 5"
#193000
b1 +
b1 0
b1 O
b1 h
#193001
b11000010 .
#194000
b10 +
b10 0
b10 O
b10 h
#194001
b11000011 .
#195000
b11 +
b11 0
b11 O
b11 h
#195001
b11000100 .
#196000
b100 +
b100 0
b100 O
b100 h
#196001
b11000101 .
#197000
b101 +
b101 0
b101 O
b101 h
#197001
b11000110 .
#198000
b110 +
b110 0
b110 O
b110 h
#198001
b11000111 .
#199000
b111 +
b111 0
b111 O
b111 h
#199001
b11001000 .
#200000
b1000 +
b1000 0
b1000 O
b1000 h
#200001
b11001001 .
#201000
b1001 +
b1001 0
b1001 O
b1001 h
#201001
b11001010 .
#202000
b1010 +
b1010 0
b1010 O
b1010 h
#202001
b11001011 .
#203000
b1011 +
b1011 0
b1011 O
b1011 h
#203001
b11001100 .
#204000
b1100 +
b1100 0
b1100 O
b1100 h
#204001
b11001101 .
#205000
b1101 +
b1101 0
b1101 O
b1101 h
#205001
b11001110 .
#206000
b1110 +
b1110 0
b1110 O
b1110 h
#206001
b11001111 .
#207000
b1111 +
b1111 0
b1111 O
b1111 h
#207001
b11010000 .
#208000
b10 $
b10 4
b10 L
0t
0u
b10 3
b10 :
b10 I
0?
0r
0>
b10 5
b10 ;
b10 W
b10 Y
b10 ]
b10 l
b10 [
b1101 U
b1101 Z
b1101 ^
b1101 j
b1101 *
b1101 /
b1101 N
b1101 d
b1101 g
b0 +
b0 0
b0 O
b0 h
#208001
b11010001 .
b1101 5"
#209000
b1 +
b1 0
b1 O
b1 h
#209001
b11010010 .
#210000
b10 +
b10 0
b10 O
b10 h
#210001
b11010011 .
#211000
b11 +
b11 0
b11 O
b11 h
#211001
b11010100 .
#212000
b100 +
b100 0
b100 O
b100 h
#212001
b11010101 .
#213000
b101 +
b101 0
b101 O
b101 h
#213001
b11010110 .
#214000
b110 +
b110 0
b110 O
b110 h
#214001
b11010111 .
#215000
b111 +
b111 0
b111 O
b111 h
#215001
b11011000 .
#216000
b1000 +
b1000 0
b1000 O
b1000 h
#216001
b11011001 .
#217000
b1001 +
b1001 0
b1001 O
b1001 h
#217001
b11011010 .
#218000
b1010 +
b1010 0
b1010 O
b1010 h
#218001
b11011011 .
#219000
b1011 +
b1011 0
b1011 O
b1011 h
#219001
b11011100 .
#220000
b1100 +
b1100 0
b1100 O
b1100 h
#220001
b11011101 .
#221000
b1101 +
b1101 0
b1101 O
b1101 h
#221001
b11011110 .
#222000
b1110 +
b1110 0
b1110 O
b1110 h
#222001
b11011111 .
#223000
b1111 +
b1111 0
b1111 O
b1111 h
#223001
b11100000 .
#224000
b1 $
b1 4
b1 L
1t
1u
1?
0}
0~
b1 3
b1 :
b1 I
0B
1r
1>
0{
0A
b1 5
b1 ;
b1 W
b1 Y
b1 ]
b1 l
b1 [
b1110 U
b1110 Z
b1110 ^
b1110 j
b1110 *
b1110 /
b1110 N
b1110 d
b1110 g
b0 +
b0 0
b0 O
b0 h
#224001
b11100001 .
b1110 5"
#225000
b1 +
b1 0
b1 O
b1 h
#225001
b11100010 .
#226000
b10 +
b10 0
b10 O
b10 h
#226001
b11100011 .
#227000
b11 +
b11 0
b11 O
b11 h
#227001
b11100100 .
#228000
b100 +
b100 0
b100 O
b100 h
#228001
b11100101 .
#229000
b101 +
b101 0
b101 O
b101 h
#229001
b11100110 .
#230000
b110 +
b110 0
b110 O
b110 h
#230001
b11100111 .
#231000
b111 +
b111 0
b111 O
b111 h
#231001
b11101000 .
#232000
b1000 +
b1000 0
b1000 O
b1000 h
#232001
b11101001 .
#233000
b1001 +
b1001 0
b1001 O
b1001 h
#233001
b11101010 .
#234000
b1010 +
b1010 0
b1010 O
b1010 h
#234001
b11101011 .
#235000
b1011 +
b1011 0
b1011 O
b1011 h
#235001
b11101100 .
#236000
b1100 +
b1100 0
b1100 O
b1100 h
#236001
b11101101 .
#237000
b1101 +
b1101 0
b1101 O
b1101 h
#237001
b11101110 .
#238000
b1110 +
b1110 0
b1110 O
b1110 h
#238001
b11101111 .
#239000
b1111 +
b1111 0
b1111 O
b1111 h
#239001
b11110000 .
#240000
1!
b0 $
b0 4
b0 L
0t
0u
b0 3
b0 :
b0 I
0?
0r
0>
b0 5
b0 ;
b0 W
b0 Y
b0 ]
b0 l
b0 [
b1111 U
b1111 Z
b1111 ^
b1111 j
b1111 *
b1111 /
b1111 N
b1111 d
b1111 g
b0 +
b0 0
b0 O
b0 h
#240001
b11110001 .
1)
b1111 5"
#241000
b1 +
b1 0
b1 O
b1 h
#241001
b11110010 .
#242000
b10 +
b10 0
b10 O
b10 h
#242001
b11110011 .
#243000
b11 +
b11 0
b11 O
b11 h
#243001
b11110100 .
#244000
b100 +
b100 0
b100 O
b100 h
#244001
b11110101 .
#245000
b101 +
b101 0
b101 O
b101 h
#245001
b11110110 .
#246000
b110 +
b110 0
b110 O
b110 h
#246001
b11110111 .
#247000
b111 +
b111 0
b111 O
b111 h
#247001
b11111000 .
#248000
b1000 +
b1000 0
b1000 O
b1000 h
#248001
b11111001 .
